1000 1 1 9.71872
1000 1 5 4.45172
1000 1 7 4.05951
1000 1 10 3.80901
1000 1 20 3.61609
1000 1 30 3.54314
1000 1 40 3.31115
1000 1 50 3.23332
1000 1 70 3.23598
1000 1 100 3.0988
1000 1 200 3.07619
1000 1 300 3.07709
1000 1 400 3.09134
1000 1 500 3.23679
1000 1 700 3.30753
1000 1 1000 3.13115
1000 2 1 12.8714
1000 2 5 6.21178
1000 2 7 5.57443
1000 2 10 5.21839
1000 2 20 4.3717
1000 2 30 4.03148
1000 2 40 4.24421
1000 2 50 4.21488
1000 2 70 3.99027
1000 2 100 4.06785
1000 2 200 3.87999
1000 2 300 3.96207
1000 2 400 3.88753
1000 2 500 3.95475
1000 2 700 3.77445
1000 2 1000 3.94641
1000 4 1 8.177
1000 4 5 3.72219
1000 4 7 3.3609
1000 4 10 3.14482
1000 4 20 2.95005
1000 4 30 2.87077
1000 4 40 2.91973
1000 4 50 3.34971
1000 4 70 2.80828
1000 4 100 2.77562
1000 4 200 2.82506
1000 4 300 2.84819
1000 4 400 2.68905
1000 4 500 2.67921
1000 4 700 2.63287
1000 4 1000 2.65061
1000 8 1 11.1311
1000 8 5 4.47701
1000 8 7 3.93552
1000 8 10 3.55834
1000 8 20 2.93217
1000 8 30 2.67288
1000 8 40 2.52805
1000 8 50 2.51099
1000 8 70 2.33608
1000 8 100 2.31056
1000 8 200 2.25132
1000 8 300 2.11117
1000 8 400 2.07244
1000 8 500 2.17816
1000 8 700 2.06638
1000 8 1000 2.17163
1000 16 1 24.6411
1000 16 5 7.78403
1000 16 7 8.00645
1000 16 10 5.93091
1000 16 20 4.64012
1000 16 30 3.8859
1000 16 40 3.50661
1000 16 50 3.10058
1000 16 70 2.82153
1000 16 100 2.47889
1000 16 200 2.16663
1000 16 300 2.02787
1000 16 400 1.9523
1000 16 500 2.18278
1000 16 700 1.86926
1000 16 1000 1.97892
1000 32 1 92.9539
1000 32 5 24.1437
1000 32 7 18.8543
1000 32 10 13.7601
1000 32 20 9.92821
1000 32 30 8.23417
1000 32 40 6.26552
1000 32 50 5.44773
1000 32 70 4.21766
1000 32 100 3.59982
1000 32 200 2.69131
1000 32 300 2.187
1000 32 400 2.1033
1000 32 500 2.13882
1000 32 700 1.9007
1000 32 1000 2.10363
1500 1 1 40.1078
1500 1 5 16.1624
1500 1 7 14.4286
1500 1 10 13.2279
1500 1 20 11.7596
1500 1 30 11.3153
1500 1 40 11.0004
1500 1 50 10.8439
1500 1 70 10.5967
1500 1 100 10.7006
1500 1 200 11.0513
1500 1 300 10.5077
1500 1 400 10.4021
1500 1 500 10.3387
1500 1 700 10.2917
1500 1 1000 10.237
1500 1 1500 10.2052
1500 2 1 49.3907
1500 2 5 21.9582
1500 2 7 20.1439
1500 2 10 18.2791
1500 2 20 16.9399
1500 2 30 16.4108
1500 2 40 15.7175
1500 2 50 15.7832
1500 2 70 15.5431
1500 2 100 15.5314
1500 2 200 13.8338
1500 2 300 13.8363
1500 2 400 13.8616
1500 2 500 13.9971
1500 2 700 13.783
1500 2 1000 13.9168
1500 2 1500 13.8797
1500 4 1 30.2111
1500 4 5 13.796
1500 4 7 12.9505
1500 4 10 11.9438
1500 4 20 11.066
1500 4 30 10.4974
1500 4 40 10.3694
1500 4 50 10.3521
1500 4 70 12.0044
1500 4 100 9.96987
1500 4 200 10.1918
1500 4 300 10.1622
1500 4 400 10.0588
1500 4 500 9.95886
1500 4 700 9.63485
1500 4 1000 9.1718
1500 4 1500 8.99647
1500 8 1 37.5542
1500 8 5 14.2376
1500 8 7 12.4937
1500 8 10 12.7
1500 8 20 9.95336
1500 8 30 8.64828
1500 8 40 9.24045
1500 8 50 8.38335
1500 8 70 7.9427
1500 8 100 7.80275
1500 8 200 7.41261
1500 8 300 7.76178
1500 8 400 7.09154
1500 8 500 7.52159
1500 8 700 7.48585
1500 8 700 7.52251
1500 8 1000 7.0705
1500 8 1500 7.27852
1500 16 1 85.3153
1500 16 5 23.4806
1500 16 7 19.8856
1500 16 10 17.3541
1500 16 20 12.9704
1500 16 30 11.0037
1500 16 40 10.1435
1500 16 50 9.40596
1500 16 70 8.21368
1500 16 100 7.58768
1500 16 200 6.88367
1500 16 300 6.85738
1500 16 400 6.42941
1500 16 500 6.70986
1500 16 700 6.60826
1500 16 1000 6.33648
1500 16 1500 6.75818
1500 32 1 251.967
1500 32 5 62.7995
1500 32 7 51.9883
1500 32 10 58.6512
1500 32 20 28.1018
1500 32 30 21.4738
1500 32 40 18.3259
1500 32 50 16.6133
1500 32 70 12.644
1500 32 100 9.49145
1500 32 200 7.46025
1500 32 300 6.93176
1500 32 400 6.42943
1500 32 500 6.61967
1500 32 700 6.46113
1500 32 1000 6.09059
1500 32 1500 6.65603
3000 1 1 346.814
3000 1 5 134.317
3000 1 7 119.162
3000 1 10 108.28
3000 1 20 95.5073
3000 1 30 91.4994
3000 1 40 89.8538
3000 1 50 89.6393
3000 1 70 94.3893
3000 1 100 98.6604
3000 1 200 88.7655
3000 1 300 84.1647
3000 1 400 83.413
3000 1 500 83.1277
3000 1 700 84.5985
3000 1 1000 82.0117
3000 1 1500 81.6675
3000 1 3000 112.267   3000 1 3000 84.6  <---ПЕРЕСЧИТАЛ НА СВОБОДНОМ ПРОЦЕ
3000 2 1 428.992
3000 2 5 222.654
3000 2 7 191.387
3000 2 10 154.847
3000 2 20 137.078
3000 2 30 132.613
3000 2 40 131.379
3000 2 50 145.359
3000 2 70 126.018
3000 2 100 131.61
3000 2 200 117.3
3000 2 300 112.041
3000 2 400 112.783
3000 2 500 111.321
3000 2 700 111.376
3000 2 1000 109.517
3000 2 1500 108.615
3000 2 3000 108.237
3000 4 1 283.848
3000 4 5 123.57
3000 4 7 111.276
3000 4 10 102.366
3000 4 20 90.7479
3000 4 30 88.3249
3000 4 40 86.4125
3000 4 50 84.7796
3000 4 70 85.5204
3000 4 100 86.9685
3000 4 200 87.276
3000 4 300 84.7999
3000 4 400 90.1426
3000 4 500 87.0931
3000 4 700 86.5242
3000 4 1000 88.3291
3000 4 1500 92.6355
3000 4 3000 78.084
3000 8 1 363.22
3000 8 5 100.963
3000 8 7 91.9999
3000 8 10 83.0003
3000 8 20 72.2986
3000 8 30 69.8985
3000 8 40 68.9161
3000 8 50 69.6742
3000 8 70 67.5877
3000 8 100 67.8956
3000 8 200 68.063
3000 8 300 66.7242
3000 8 400 65.758
3000 8 500 67.3979
3000 8 700 65.8471
3000 8 700 64.5863
3000 8 1000 67.0549
3000 8 1500 67.4147
3000 8 3000 65.9938
----------------------
3000 16 1 error
Fatal error in MPI_Irecv: Other MPI error, error stack:
MPI_Irecv(145): MPI_Irecv(buf=0x7fdbc58066f0, count=1, MPI_DOUBLE, src=13, tag=2974, MPI_COMM_WORLD, request=0x1081e547c) failed
MPID_Irecv(41): failure occurred while allocating memory for a request object
----------------------
3000 16 5 189.764
3000 16 7 151.682
3000 16 10 123.829
3000 16 20 92.2586
3000 16 30 78.6449
3000 16 40 76.1062
3000 16 50 68.4603
3000 16 70 66.0755
3000 16 100 64.3508
3000 16 200 62.8227
3000 16 300 62.2756
3000 16 400 62.4423
3000 16 500 63.3586
3000 16 700 62.0933
3000 16 1000 62.8292
3000 16 1500 62.8405
3000 16 3000 62.0086
------------------------
3000 32 1 не хваатает оперативы (8 Gb)
------------------------
3000 32 5 367.329
3000 32 7 301.798
3000 32 10 237.384
3000 32 20 145.696
3000 32 30 117.316
3000 32 40 95.981
3000 32 50 85.611
3000 32 70 69.946
3000 32 100 62.9815
3000 32 200 56.4943
3000 32 300 55.828
3000 32 400 54.304
3000 32 500 54.7762
3000 32 700 54.2958
3000 32 1000 55.2035
3000 32 1500 55.96
3000 32 3000 55.9695
